%YAML 1.1
%TAG !u! tag:unity3d.com,2011:
--- !u!114 &11400000
MonoBehaviour:
  m_ObjectHideFlags: 0
  m_PrefabParentObject: {fileID: 0}
  m_PrefabInternal: {fileID: 0}
  m_GameObject: {fileID: 0}
  m_Enabled: 1
  m_EditorHideFlags: 0
  m_Script: {fileID: 11500000, guid: a6b194f808b1af6499c93410e504af42, type: 3}
  m_Name: skeleton_Atlas
  m_EditorClassIdentifier: 
  atlasFile: {fileID: 4900000, guid: e6f2f204f92770049a73fca18bb84efe, type: 3}
  materials:
  - {fileID: 2100000, guid: c7125f1ae7776ce4e9b6b5456eb1ec9a, type: 2}
  - {fileID: 2100000, guid: 4177bb2f01967ea44a8f3d7b410fffe1, type: 2}
  - {fileID: 2100000, guid: 92dc88b0ebe37f04c8584b66bc1e4166, type: 2}
