{
"skeleton": { "hash": "laYXrHNQNe4HfWmZ258LanA9qBE", "spine": "2.1.27", "width": 211, "height": 261 },
"bones": [
	{ "name": "root" },
	{ "name": "bone", "parent": "root", "length": 93.89, "x": -1.74, "y": -1.64, "rotation": 89.09 },
	{ "name": "bone2", "parent": "root", "length": 64.75, "x": 2.68, "y": 0.99, "rotation": 90 },
	{ "name": "bone3", "parent": "root", "length": 62.44, "x": 3.55, "y": -0.18, "rotation": 91.8 },
	{ "name": "bone4", "parent": "root", "length": 72.96, "x": 6.02, "y": -3.46, "rotation": 87.29 },
	{ "name": "bone5", "parent": "root", "length": 143.39, "x": -3.8, "y": 1.81, "rotation": 90 }
],
"slots": [
	{ "name": "mushroom", "bone": "bone", "attachment": "mushroom" },
	{ "name": "Mushroom2", "bone": "bone2", "attachment": "Mushroom2" },
	{ "name": "Mushroom3", "bone": "bone3", "attachment": "Mushroom3" },
	{ "name": "Mushroom4", "bone": "bone4", "attachment": "Mushroom4" },
	{ "name": "Mushroom5", "bone": "bone5", "attachment": "Mushroom5" }
],
"skins": {
	"default": {
		"Mushroom2": {
			"Mushroom2": {
				"type": "mesh",
				"uvs": [ 1, 1, 0, 1, 0, 0, 1, 0, 0.95034, 0.26481, 0.85285, 0.4, 0.63793, 0.48879, 0.3521, 0.50493, 0.08844, 0.4222, 0.05299, 0.37579, 0.15491, 0.15584, 0.40085, 0.06302, 0.70661, 0.06302, 0.87944, 0.13365, 0.40053, 0.5022, 0.39863, 0.93473, 0.67559, 0.92263, 0.67549, 0.47327 ],
				"triangles": [ 3, 11, 2, 12, 11, 3, 13, 12, 3, 10, 2, 11, 4, 13, 3, 9, 2, 10, 5, 12, 13, 5, 13, 4, 8, 9, 10, 12, 6, 11, 17, 12, 5, 17, 6, 12, 11, 7, 10, 14, 11, 6, 7, 8, 10, 11, 14, 7, 16, 17, 5, 6, 17, 16, 15, 7, 14, 14, 6, 16, 15, 14, 16, 9, 1, 2, 1, 9, 8, 1, 8, 7, 1, 7, 15, 3, 0, 4, 5, 4, 0, 16, 5, 0, 15, 16, 0, 1, 15, 0 ],
				"vertices": [ -5.92, -22.18, -5.92, 28.81, 50.07, 28.81, 50.07, -22.18, 35.25, -19.65, 27.67, -14.68, 22.7, -3.72, 21.8, 10.85, 26.43, 24.3, 29.03, 26.1, 41.34999, 20.91, 46.55, 8.35999, 46.55, -7.22, 42.59, -16.03, 21.95, 8.38, -2.26, 8.47999, -1.58, -5.64, 23.57, -5.63 ],
				"hull": 4
			}
		},
		"Mushroom3": {
			"Mushroom3": {
				"type": "mesh",
				"uvs": [ 1, 1, 0, 1, 0, 0, 1, 0, 0.91917, 0.38094, 0.73843, 0.43398, 0.53536, 0.46109, 0.28354, 0.46226, 0.12108, 0.44223, 0.15154, 0.27487, 0.27948, 0.13698, 0.46225, 0.04269, 0.6308, 0.05212, 0.78108, 0.14641, 0.86637, 0.24894, 0.46617, 0.46141, 0.51708, 0.9608, 0.76077, 0.94783, 0.66352, 0.44398 ],
				"triangles": [ 11, 2, 3, 12, 11, 3, 10, 2, 11, 13, 12, 3, 14, 13, 3, 9, 2, 10, 4, 14, 3, 13, 18, 12, 5, 13, 14, 5, 14, 4, 8, 2, 9, 5, 18, 13, 6, 11, 12, 6, 12, 18, 15, 10, 11, 15, 9, 10, 9, 7, 8, 15, 11, 6, 15, 7, 9, 17, 5, 4, 18, 5, 17, 16, 15, 6, 6, 18, 17, 16, 6, 17, 8, 1, 2, 1, 8, 7, 3, 0, 4, 17, 4, 0, 16, 17, 0, 7, 15, 16, 1, 7, 16, 1, 16, 0 ],
				"vertices": [ -8.7, -22.41, -6.66, 42.55, 105.27, 39.05, 103.24, -25.91, 60.76, -19.33, 55.19, -7.4, 52.57, 5.88, 52.95, 22.24, 55.52, 32.73, 74.19, 30.16, 89.37, 21.37, 99.55, 9.16, 98.15, -1.74, 87.29, -11.18, 75.64, -16.36, 52.67, 10.37, -3.33, 8.81, -2.36999, -7.05, 54.22, -2.5 ],
				"hull": 4
			}
		},
		"Mushroom4": {
			"Mushroom4": {
				"type": "mesh",
				"uvs": [ 1, 0.03357, 1, 1, 0, 1, 0, 0.26636, 0, 0, 0.57188, 0, 1, 0, 0.93743, 0.06908, 0.60844, 0.21704, 0.32087, 0.25255, 0.05524, 0.28806, 0.1381, 0.15194, 0.39155, 0.04541, 0.9155, 0.03357, 0.51011, 0.22918, 0.50609, 0.47547, 0.52802, 0.55636, 0.51827, 0.95486, 0.6255, 0.9667, 0.62306, 0.54058, 0.64499, 0.51098, 0.64499, 0.4735, 0.68398, 0.45574 ],
				"triangles": [ 13, 5, 6, 0, 13, 6, 12, 4, 5, 7, 13, 0, 11, 4, 12, 8, 5, 13, 14, 12, 5, 8, 13, 7, 8, 14, 5, 9, 11, 12, 9, 12, 14, 3, 4, 11, 10, 3, 11, 10, 11, 9, 22, 8, 7, 21, 8, 22, 15, 9, 14, 14, 8, 21, 15, 14, 21, 21, 19, 15, 20, 19, 21, 16, 15, 19, 15, 16, 10, 1, 18, 19, 16, 19, 18, 17, 16, 18, 2, 3, 10, 10, 9, 15, 16, 2, 10, 7, 0, 1, 22, 7, 1, 20, 21, 22, 1, 20, 22, 1, 19, 20, 17, 2, 16, 2, 17, 18, 2, 18, 1 ],
				"vertices": [ 138.1, -40.29, -3.79, -47.01, -9.42, 71.83999, 98.29, 76.94999, 137.4, 78.8, 140.62, 10.82, 143.03, -40.05, 132.54, -33.09999, 108.96, 4.96999, 102.12, 38.9, 95.41, 70.23, 115.87, 61.33, 132.94, 31.94, 137.63, -30.24, 106.62, 16.57, 70.43, 15.34, 58.68, 12.17, 0.11, 10.55, -1.01, -2.27, 61.53, 0.98, 66, -1.41, 71.51, -1.15, 74.33, -5.66 ],
				"hull": 7
			}
		},
		"Mushroom5": {
			"Mushroom5": {
				"type": "mesh",
				"uvs": [ 1, 1, 0, 1, 0, 0, 1, 0, 0.96547, 0.05205, 0.61912, 0.20427, 0.24116, 0.28316, 0.0295, 0.27316, 0.20267, 0.12316, 0.48168, 0.02093, 0.79092, 0.02093, 0.51345, 0.22632, 0.49267, 0.47427, 0.5339, 0.52316, 0.51329, 0.95093, 0.62462, 0.95427, 0.61912, 0.53316, 0.64523, 0.52427, 0.62187, 0.45982, 0.6631, 0.44982 ],
				"triangles": [ 3, 9, 2, 10, 9, 3, 4, 10, 3, 8, 2, 9, 5, 9, 10, 5, 10, 4, 11, 9, 5, 8, 9, 11, 7, 2, 8, 6, 8, 11, 7, 8, 6, 19, 5, 4, 18, 11, 5, 19, 18, 5, 12, 6, 11, 12, 11, 18, 13, 12, 18, 17, 18, 19, 16, 13, 18, 17, 16, 18, 14, 12, 13, 14, 13, 16, 15, 16, 17, 14, 16, 15, 7, 1, 2, 1, 7, 6, 1, 6, 12, 1, 12, 14, 4, 3, 0, 19, 4, 0, 17, 19, 0, 15, 17, 0, 1, 14, 15, 0, 1, 15 ],
				"vertices": [ -23.11, -93.92, -23.11, 117.07, 237.88, 117.07, 237.88, -93.92, 224.29, -86.64, 184.56, -13.56, 163.97, 66.18, 166.58, 110.84, 205.73, 74.3, 232.41, 15.43, 232.41, -49.81, 178.8, 8.72999, 114.09, 13.11, 101.33, 4.41, -10.31, 8.76, -11.18, -14.72, 98.72, -13.56, 101.04, -19.07, 117.86, -14.14, 120.47, -22.84 ],
				"hull": 4
			}
		},
		"mushroom": {
			"mushroom": {
				"type": "mesh",
				"uvs": [ 1, 1, 0, 1, 0, 0, 1, 0, 0.0834, 0.36932, 0.26731, 0.47707, 0.50659, 0.50042, 0.74192, 0.45373, 0.89419, 0.35315, 0.92583, 0.27054, 0.85266, 0.10891, 0.57976, 0.05862, 0.32861, 0.07299, 0.13877, 0.21307, 0.39955, 0.48998, 0.38794, 0.92426, 0.69643, 0.92246, 0.67067, 0.46786, 0.69042, 0.81641, 0.678, 0.59724, 0.39621, 0.6151, 0.39067, 0.82217 ],
				"triangles": [ 11, 2, 3, 12, 2, 11, 10, 11, 3, 13, 2, 12, 9, 10, 3, 8, 10, 9, 4, 2, 13, 7, 11, 10, 7, 10, 8, 17, 11, 7, 5, 13, 12, 4, 13, 5, 14, 12, 11, 14, 5, 12, 14, 11, 6, 17, 6, 11, 19, 17, 7, 6, 17, 19, 20, 5, 14, 20, 14, 6, 0, 18, 19, 21, 5, 20, 20, 6, 19, 0, 16, 18, 21, 1, 5, 20, 19, 18, 21, 20, 18, 4, 1, 2, 1, 4, 5, 15, 1, 21, 3, 0, 9, 8, 9, 0, 19, 7, 8, 19, 8, 0, 15, 21, 18, 16, 15, 18, 0, 1, 15, 0, 15, 16 ],
				"vertices": [ -7.74, -41.89, -9.16, 47.09, 88.82, 48.65, 90.23, -40.33, 52.74, 40.65, 42.45, 24.12, 40.5, 2.79, 45.41, -18.07, 55.48, -31.46, 63.62, -34.15, 79.35, -27.39, 83.89, -3.02, 82.12999, 19.29, 68.12999, 35.97, 41.37, 12.33, -1.19, 12.69, -0.58, -14.75, 43.92, -11.75, 9.8, -14.05, 31.25, -12.61, 29.1, 12.43, 8.81, 12.6 ],
				"hull": 4
			}
		}
	}
},
"animations": {
	"1": {
		"slots": {
			"Mushroom2": {
				"attachment": [
					{ "time": 0, "name": null }
				]
			},
			"Mushroom3": {
				"attachment": [
					{ "time": 0, "name": null }
				]
			},
			"Mushroom4": {
				"attachment": [
					{ "time": 0, "name": null }
				]
			},
			"Mushroom5": {
				"attachment": [
					{ "time": 0, "name": null }
				]
			}
		},
		"bones": {
			"bone": {
				"rotate": [
					{
						"time": 0,
						"angle": -3.62,
						"curve": [ 0.25, 0, 0.75, 1 ]
					},
					{
						"time": 1.3666,
						"angle": 4.68,
						"curve": [ 0.25, 0, 0.75, 1 ]
					},
					{ "time": 2.6666, "angle": -3.62 }
				],
				"translate": [
					{ "time": 0, "x": 0, "y": 0, "curve": "stepped" },
					{ "time": 2.6666, "x": 0, "y": 0 }
				]
			}
		},
		"ffd": {
			"default": {
				"mushroom": {
					"mushroom": [
						{
							"time": 0,
							"curve": [ 0.25, 0, 0.75, 1 ]
						},
						{
							"time": 1.7,
							"offset": 4,
							"vertices": [ -7.8578, 6.26486, 0, 0, -6.21194, 0.84733, -3.56466, -0.53192, -0.28268, -0.5791, 2.84827, 0.41608, 4.77641, 2.11216, 5.0913, 3.38745, 3.87303, 5.71212, 0.09708, 6.11971, -3.29359, 5.58795, -5.67709, 3.25363, -1.75082, -0.55799, 0, 0, 0, 0, 1.90034, 0.11479 ],
							"curve": [ 0.25, 0, 0.75, 1 ]
						},
						{ "time": 2.6666 }
					]
				}
			}
		}
	},
	"2": {
		"slots": {
			"Mushroom3": {
				"attachment": [
					{ "time": 0, "name": null }
				]
			},
			"Mushroom4": {
				"attachment": [
					{ "time": 0, "name": null }
				]
			},
			"Mushroom5": {
				"attachment": [
					{ "time": 0, "name": null }
				]
			},
			"mushroom": {
				"attachment": [
					{ "time": 0, "name": null }
				]
			}
		},
		"bones": {
			"bone": {
				"rotate": [
					{ "time": 0, "angle": -3.62 }
				],
				"translate": [
					{ "time": 0, "x": 0, "y": 0 }
				]
			},
			"bone2": {
				"rotate": [
					{
						"time": 0,
						"angle": -3.62,
						"curve": [ 0.25, 0, 0.75, 1 ]
					},
					{
						"time": 0.8333,
						"angle": 4.03,
						"curve": [ 0.25, 0, 0.75, 1 ]
					},
					{ "time": 1.6666, "angle": -3.62 }
				],
				"translate": [
					{ "time": 0, "x": 0, "y": 0, "curve": "stepped" },
					{ "time": 1.6666, "x": 0, "y": 0 }
				]
			}
		},
		"ffd": {
			"default": {
				"Mushroom2": {
					"Mushroom2": [
						{
							"time": 0,
							"curve": [ 0.25, 0, 0.75, 1 ]
						},
						{
							"time": 0.9333,
							"offset": 4,
							"vertices": [ -4.01452, 3.24758, 0, 0, 3.373, 1.57902, 2.71667, 0.39539, 1.13893, -0.46784, -1.02304, -0.76529, -3.07845, -0.22507, -3.37686, 0.142, -2.73983, 2.03536, -0.9289, 2.94992, 1.3947, 3.124, 2.75219, 2.63307, -0.65678, -0.71489, 0, 0, 0, 0, 1.41469, -0.31695 ],
							"curve": [ 0.25, 0, 0.75, 1 ]
						},
						{ "time": 1.6666 }
					]
				},
				"mushroom": {
					"mushroom": [
						{ "time": 0 }
					]
				}
			}
		}
	},
	"8": {
		"slots": {
			"Mushroom2": {
				"attachment": [
					{ "time": 0, "name": null }
				]
			},
			"Mushroom4": {
				"attachment": [
					{ "time": 0, "name": null }
				]
			},
			"Mushroom5": {
				"attachment": [
					{ "time": 0, "name": null }
				]
			},
			"mushroom": {
				"attachment": [
					{ "time": 0, "name": null },
					{ "time": 1.3, "name": null }
				]
			}
		},
		"bones": {
			"bone": {
				"rotate": [
					{ "time": 0, "angle": -3.62 }
				],
				"translate": [
					{ "time": 0, "x": 0, "y": 0 }
				]
			},
			"bone3": {
				"rotate": [
					{
						"time": 0,
						"angle": -8.08,
						"curve": [ 0.25, 0, 0.75, 1 ]
					},
					{
						"time": 1.3,
						"angle": -0.81,
						"curve": [ 0.25, 0, 0.75, 1 ]
					},
					{ "time": 2.6666, "angle": -8.08 }
				],
				"translate": [
					{ "time": 0, "x": 0, "y": 0, "curve": "stepped" },
					{ "time": 2.6666, "x": 0, "y": 0 }
				]
			}
		},
		"ffd": {
			"default": {
				"Mushroom3": {
					"Mushroom3": [
						{
							"time": 0,
							"curve": [ 0.25, 0, 0.75, 1 ]
						},
						{
							"time": 1.5,
							"offset": 8,
							"vertices": [ 2.62663, 1.74114, 1.11029, 0.90755, -0.60995, 0.44884, -2.75954, 0.35727, -4.15693, 0.60415, -3.98184, 3.07547, -2.95947, 5.14196, -1.44674, 6.58308, -0.00271, 6.49404, 1.32833, 5.15111, 2.10874, 3.66767, -1.20057, 0.42368, 0, 0, 0, 0, 0.47572, 0.73833 ],
							"curve": [ 0.25, 0, 0.75, 1 ]
						},
						{ "time": 2.6666 }
					]
				},
				"mushroom": {
					"mushroom": [
						{ "time": 0 }
					]
				}
			}
		}
	},
	"9": {
		"slots": {
			"Mushroom2": {
				"attachment": [
					{ "time": 0, "name": null }
				]
			},
			"Mushroom4": {
				"attachment": [
					{ "time": 0, "name": null }
				]
			},
			"Mushroom5": {
				"attachment": [
					{ "time": 0, "name": null }
				]
			},
			"mushroom": {
				"attachment": [
					{ "time": 0, "name": null },
					{ "time": 1.5666, "name": null }
				]
			}
		},
		"bones": {
			"bone": {
				"rotate": [
					{ "time": 0, "angle": -3.62 }
				],
				"translate": [
					{ "time": 0, "x": 0, "y": 0 }
				]
			},
			"bone3": {
				"rotate": [
					{
						"time": 0,
						"angle": -8.08,
						"curve": [ 0.25, 0, 0.75, 1 ]
					},
					{
						"time": 1.5666,
						"angle": -0.81,
						"curve": [ 0.25, 0, 0.75, 1 ]
					},
					{ "time": 3.2, "angle": -8.08 }
				],
				"translate": [
					{ "time": 0, "x": 0, "y": 0, "curve": "stepped" },
					{ "time": 3.2, "x": 0, "y": 0 }
				]
			}
		},
		"ffd": {
			"default": {
				"Mushroom3": {
					"Mushroom3": [
						{
							"time": 0,
							"offset": 32,
							"vertices": [ 19.96538, 0.23899, 19.96538, 0.23899 ],
							"curve": [ 0.25, 0, 0.75, 1 ]
						},
						{
							"time": 1.8,
							"offset": 8,
							"vertices": [ 2.62663, 1.74114, 1.11029, 0.90755, -0.60995, 0.44884, -2.75954, 0.35727, -4.15693, 0.60415, -3.98184, 3.07547, -2.95947, 5.14196, -1.44674, 6.58308, -0.00271, 6.49404, 1.32833, 5.15111, 2.10874, 3.66767, -1.20057, 0.42368, 19.87464, 0.28327, 19.87464, 0.28327, 0.47572, 0.73833 ],
							"curve": [ 0.25, 0, 0.75, 1 ]
						},
						{
							"time": 3.2,
							"offset": 32,
							"vertices": [ 19.96538, 0.23899, 19.96538, 0.23899 ]
						}
					]
				},
				"mushroom": {
					"mushroom": [
						{ "time": 0 }
					]
				}
			}
		}
	},
	"11": {
		"slots": {
			"Mushroom2": {
				"attachment": [
					{ "time": 0, "name": null }
				]
			},
			"Mushroom4": {
				"attachment": [
					{ "time": 0, "name": null }
				]
			},
			"Mushroom5": {
				"attachment": [
					{ "time": 0, "name": null }
				]
			},
			"mushroom": {
				"attachment": [
					{ "time": 0, "name": null }
				]
			}
		},
		"bones": {
			"bone": {
				"rotate": [
					{ "time": 0, "angle": -3.62 }
				],
				"translate": [
					{ "time": 0, "x": 0, "y": 0 }
				]
			},
			"bone3": {
				"rotate": [
					{
						"time": 0,
						"angle": 5.18,
						"curve": [ 0.25, 0, 0.75, 1 ]
					},
					{
						"time": 1.1,
						"angle": -12.91,
						"curve": [ 0.25, 0, 0.75, 1 ]
					},
					{ "time": 2.2, "angle": 5.18 }
				],
				"translate": [
					{ "time": 0, "x": 0, "y": 0, "curve": "stepped" },
					{ "time": 2.2, "x": 0, "y": 0 }
				],
				"scale": [
					{ "time": 0, "x": 0.532, "y": 0.532, "curve": "stepped" },
					{ "time": 2.2, "x": 0.532, "y": 0.532 }
				]
			}
		},
		"ffd": {
			"default": {
				"Mushroom3": {
					"Mushroom3": [
						{
							"time": 0,
							"vertices": [ -20.12351, -3.27619, -20.12351, -3.27619, -20.12351, -3.27619, -20.12351, -3.27619, -20.12351, -3.27619, -20.12351, -3.27619, -20.12351, -3.27619, -20.12351, -3.27619, -20.12351, -3.27619, -20.12351, -3.27619, -20.12351, -3.27619, -20.12351, -3.27619, -20.12351, -3.27619, -20.12351, -3.27619, -20.12351, -3.27619, -20.12351, -3.27619, 2.80182, -1.28814, 2.80182, -1.28814, -20.12351, -3.27619 ],
							"curve": [ 0.25, 0, 0.75, 1 ]
						},
						{
							"time": 1.2666,
							"vertices": [ -20.12351, -3.27619, -20.12351, -3.27619, -11.94667, -17.75691, -30.64517, -14.38658, -26.92164, -2.38526, -23.23411, -1.28558, -19.27949, -1.09669, -14.5641, -1.90739, -11.64266, -3.10046, -13.18413, -8.38984, -16.37714, -12.40136, -20.34216, -14.82315, -23.43913, -13.95134, -25.70152, -10.40713, -26.70092, -6.81608, -17.98388, -1.31941, 2.80182, -1.28814, 2.80182, -1.28814, -21.77532, -1.21592 ],
							"curve": [ 0.25, 0, 0.75, 1 ]
						},
						{
							"time": 2.2,
							"vertices": [ -20.12351, -3.27619, -20.12351, -3.27619, -20.12351, -3.27619, -20.12351, -3.27619, -20.12351, -3.27619, -20.12351, -3.27619, -20.12351, -3.27619, -20.12351, -3.27619, -20.12351, -3.27619, -20.12351, -3.27619, -20.12351, -3.27619, -20.12351, -3.27619, -20.12351, -3.27619, -20.12351, -3.27619, -20.12351, -3.27619, -20.12351, -3.27619, 2.80182, -1.28814, 2.80182, -1.28814, -20.12351, -3.27619 ]
						}
					]
				},
				"mushroom": {
					"mushroom": [
						{ "time": 0 }
					]
				}
			}
		}
	},
	"12": {
		"slots": {
			"Mushroom2": {
				"attachment": [
					{ "time": 0, "name": null }
				]
			},
			"Mushroom3": {
				"attachment": [
					{ "time": 0, "name": null }
				]
			},
			"Mushroom4": {
				"attachment": [
					{ "time": 0, "name": null }
				]
			},
			"Mushroom5": {
				"attachment": [
					{ "time": 0, "name": null }
				]
			},
			"mushroom": {
				"color": [
					{ "time": 0, "color": "b0b0b0ff" }
				]
			}
		},
		"bones": {
			"bone": {
				"rotate": [
					{
						"time": 0,
						"angle": -3.62,
						"curve": [ 0.25, 0, 0.75, 1 ]
					},
					{
						"time": 2.1666,
						"angle": 4.68,
						"curve": [ 0.25, 0, 0.75, 1 ]
					},
					{ "time": 4.2333, "angle": -3.62 }
				],
				"translate": [
					{ "time": 0, "x": 0, "y": 0, "curve": "stepped" },
					{ "time": 4.2333, "x": 0, "y": 0 }
				],
				"scale": [
					{ "time": 0, "x": 1.318, "y": 1.318 }
				]
			}
		},
		"ffd": {
			"default": {
				"mushroom": {
					"mushroom": [
						{
							"time": 0,
							"curve": [ 0.25, 0, 0.75, 1 ]
						},
						{
							"time": 2.7,
							"offset": 4,
							"vertices": [ -7.8578, 6.26486, 0, 0, -6.21194, 0.84733, -3.56466, -0.53192, -0.28268, -0.5791, 2.84827, 0.41608, 4.77641, 2.11216, 5.0913, 3.38745, 3.87303, 5.71212, 0.09708, 6.11971, -3.29359, 5.58795, -5.67709, 3.25363, -1.75082, -0.55799, 0, 0, 0, 0, 1.90034, 0.11479 ],
							"curve": [ 0.25, 0, 0.75, 1 ]
						},
						{ "time": 4.2333 }
					]
				}
			}
		}
	},
	"13": {
		"slots": {
			"Mushroom2": {
				"attachment": [
					{ "time": 0, "name": null }
				]
			},
			"Mushroom3": {
				"color": [
					{ "time": 0, "color": "a1a1a1ff" }
				]
			},
			"Mushroom4": {
				"attachment": [
					{ "time": 0, "name": null }
				]
			},
			"Mushroom5": {
				"attachment": [
					{ "time": 0, "name": null }
				]
			},
			"mushroom": {
				"attachment": [
					{ "time": 0, "name": null },
					{ "time": 1.3, "name": null }
				]
			}
		},
		"bones": {
			"bone": {
				"rotate": [
					{ "time": 0, "angle": -3.62 }
				],
				"translate": [
					{ "time": 0, "x": 0, "y": 0 }
				]
			},
			"bone3": {
				"rotate": [
					{
						"time": 0,
						"angle": -8.08,
						"curve": [ 0.25, 0, 0.75, 1 ]
					},
					{
						"time": 1.9,
						"angle": -0.81,
						"curve": [ 0.25, 0, 0.75, 1 ]
					},
					{ "time": 3.9, "angle": -8.08 }
				],
				"translate": [
					{ "time": 0, "x": 0, "y": 0, "curve": "stepped" },
					{ "time": 3.9, "x": 0, "y": 0 }
				],
				"scale": [
					{ "time": 0, "x": 1.378, "y": 1.378 }
				]
			}
		},
		"ffd": {
			"default": {
				"Mushroom3": {
					"Mushroom3": [
						{
							"time": 0,
							"curve": [ 0.25, 0, 0.75, 1 ]
						},
						{
							"time": 2.2,
							"offset": 8,
							"vertices": [ 2.62663, 1.74114, 1.11029, 0.90755, -0.60995, 0.44884, -2.75954, 0.35727, -4.15693, 0.60415, -3.98184, 3.07547, -2.95947, 5.14196, -1.44674, 6.58308, -0.00271, 6.49404, 1.32833, 5.15111, 2.10874, 3.66767, -1.20057, 0.42368, 0, 0, 0, 0, 0.47572, 0.73833 ],
							"curve": [ 0.25, 0, 0.75, 1 ]
						},
						{ "time": 3.9 }
					]
				},
				"Mushroom4": {
					"Mushroom4": [
						{ "time": 0 }
					]
				},
				"mushroom": {
					"mushroom": [
						{ "time": 0 }
					]
				}
			}
		}
	},
	"14": {
		"slots": {
			"Mushroom2": {
				"attachment": [
					{ "time": 0, "name": null }
				]
			},
			"Mushroom3": {
				"attachment": [
					{ "time": 0, "name": null }
				],
				"color": [
					{ "time": 0, "color": "a1a1a1ff" }
				]
			},
			"Mushroom5": {
				"attachment": [
					{ "time": 0, "name": null }
				]
			},
			"mushroom": {
				"attachment": [
					{ "time": 0, "name": null }
				]
			}
		},
		"bones": {
			"bone": {
				"rotate": [
					{ "time": 0, "angle": -3.62 }
				],
				"translate": [
					{ "time": 0, "x": 0, "y": 0 }
				]
			},
			"bone3": {
				"rotate": [
					{ "time": 0, "angle": -8.08 }
				],
				"translate": [
					{ "time": 0, "x": 0, "y": 0 }
				],
				"scale": [
					{ "time": 0, "x": 1.378, "y": 1.378 }
				]
			},
			"bone4": {
				"rotate": [
					{
						"time": 0,
						"angle": 3.52,
						"curve": [ 0.25, 0, 0.75, 1 ]
					},
					{
						"time": 2.1333,
						"angle": -3.43,
						"curve": [ 0.25, 0, 0.75, 1 ]
					},
					{ "time": 4.1333, "angle": 3.52 }
				]
			}
		},
		"ffd": {
			"default": {
				"Mushroom3": {
					"Mushroom3": [
						{ "time": 0 }
					]
				},
				"Mushroom4": {
					"Mushroom4": [
						{
							"time": 0,
							"vertices": [ 0.19221, -4.05538, 0.19221, -4.05538, 0.19221, -4.05538, 0.19221, -4.05538, 0.19221, -4.05538, 0.19221, -4.05538, 0.19221, -4.05538, 0.19221, -4.05538, 0.19221, -4.05538, 0.19221, -4.05538, 0.19221, -4.05538, 0.19221, -4.05538, 0.19221, -4.05538, 0.19221, -4.05538, 0.19221, -4.05538, 0.19221, -4.05538, 0.19221, -4.05538, 0.19221, -4.05538, 0.19221, -4.05538, 0.19221, -4.05538, 0.19221, -4.05538, 0.19221, -4.05538, 0.19221, -4.05538 ],
							"curve": [ 0.25, 0, 0.75, 1 ]
						},
						{
							"time": 2.3666,
							"vertices": [ -23.33053, -19.09961, 0.19221, -4.05538, 0.19221, -4.05538, 21.53175, -12.64447, 19.57287, -26.84244, -5.10425, -23.43782, -23.57739, -20.88911, -20.36971, -17.57925, -1.70858, -8.80674, 7.58412, -11.47026, 19.30729, -11.15878, 14.73093, -17.92134, 3.01118, -22.0909, -19.68446, -19.60262, 0.28914, -8.57943, 0.19221, -4.05538, 0.19221, -4.05538, 0.19221, -4.05538, 0.19221, -4.05538, 0.19221, -4.05538, 0.19221, -4.05538, 0.19221, -4.05538, 0.19221, -4.05538 ],
							"curve": [ 0.25, 0, 0.75, 1 ]
						},
						{
							"time": 4.1333,
							"vertices": [ 0.19221, -4.05538, 0.19221, -4.05538, 0.19221, -4.05538, 0.19221, -4.05538, 0.19221, -4.05538, 0.19221, -4.05538, 0.19221, -4.05538, 0.19221, -4.05538, 0.19221, -4.05538, 0.19221, -4.05538, 0.19221, -4.05538, 0.19221, -4.05538, 0.19221, -4.05538, 0.19221, -4.05538, 0.19221, -4.05538, 0.19221, -4.05538, 0.19221, -4.05538, 0.19221, -4.05538, 0.19221, -4.05538, 0.19221, -4.05538, 0.19221, -4.05538, 0.19221, -4.05538, 0.19221, -4.05538 ]
						}
					]
				},
				"mushroom": {
					"mushroom": [
						{ "time": 0 }
					]
				}
			}
		}
	},
	"15": {
		"slots": {
			"Mushroom2": {
				"attachment": [
					{ "time": 0, "name": null },
					{ "time": 2.8666, "name": null }
				]
			},
			"Mushroom3": {
				"attachment": [
					{ "time": 0, "name": null },
					{ "time": 2.8666, "name": null }
				],
				"color": [
					{ "time": 0, "color": "a1a1a1ff", "curve": "stepped" },
					{ "time": 2.8666, "color": "a1a1a1ff" }
				]
			},
			"Mushroom5": {
				"attachment": [
					{ "time": 0, "name": null }
				]
			},
			"mushroom": {
				"attachment": [
					{ "time": 0, "name": null },
					{ "time": 2.8666, "name": null }
				]
			}
		},
		"bones": {
			"bone": {
				"rotate": [
					{ "time": 0, "angle": -3.62, "curve": "stepped" },
					{ "time": 2.8666, "angle": -3.62 }
				],
				"translate": [
					{ "time": 0, "x": 0, "y": 0, "curve": "stepped" },
					{ "time": 2.8666, "x": 0, "y": 0 }
				]
			},
			"bone3": {
				"rotate": [
					{ "time": 0, "angle": -8.08, "curve": "stepped" },
					{ "time": 2.8666, "angle": -8.08 }
				],
				"translate": [
					{ "time": 0, "x": 0, "y": 0, "curve": "stepped" },
					{ "time": 2.8666, "x": 0, "y": 0 }
				],
				"scale": [
					{ "time": 0, "x": 1.378, "y": 1.378, "curve": "stepped" },
					{ "time": 2.8666, "x": 1.378, "y": 1.378 }
				]
			},
			"bone4": {
				"rotate": [
					{
						"time": 0,
						"angle": 3.52,
						"curve": [ 0.25, 0, 0.75, 1 ]
					},
					{
						"time": 1.3,
						"angle": 11.67,
						"curve": [ 0.25, 0, 0.75, 1 ]
					},
					{ "time": 2.8666, "angle": 3.52 }
				]
			}
		},
		"ffd": {
			"default": {
				"Mushroom3": {
					"Mushroom3": [
						{ "time": 0, "curve": "stepped" },
						{ "time": 2.8666 }
					]
				},
				"Mushroom4": {
					"Mushroom4": [
						{
							"time": 0,
							"vertices": [ -8.02219, 13.72812, 0.19221, -4.05538, 0.19221, -4.05538, -45.0071, -6.39128, -47.88933, 6.60685, -25.29752, 11.61642, -8.38547, 15.36643, -10.10951, 11.44717, -21.50494, 1.34514, -32.48055, -2.90655, -42.58972, -6.9663, -40.78946, 0.40208, -31.93014, 7.8207, -11.36023, 12.98795, -25.25798, -0.1087, -16.79996, -6.80309, -16.53184, -7.66788, 0.19221, -4.05538, 0.19221, -4.05538, -15.70818, -7.42488, -15.54207, -7.08609, -15.57669, -6.67772, -15.24919, -6.45513 ],
							"curve": [ 0.25, 0, 0.75, 1 ]
						},
						{
							"time": 1.6666,
							"vertices": [ -2.85703, 24.67391, 0.19221, -4.05538, 0.19221, -4.05538, -57.89683, -12.98368, -47.88933, 6.60685, -29.73866, 18.56511, -3.69321, 27.19702, -5.77889, 20.74365, -23.99833, 2.98533, -38.71918, -5.47595, -53.99507, -13.50055, -52.3446, -1.59999, -39.57888, 11.51623, -7.99776, 22.97015, -28.81852, 0.80935, -16.79996, -6.80309, -16.53184, -7.66788, 0.19221, -4.05538, 0.19221, -4.05538, -15.70818, -7.42488, -15.54207, -7.08609, -15.57669, -6.67772, -15.24919, -6.45513 ],
							"curve": [ 0.25, 0, 0.75, 1 ]
						},
						{
							"time": 2.8666,
							"vertices": [ -8.02219, 13.72812, 0.19221, -4.05538, 0.19221, -4.05538, -45.0071, -6.39128, -47.88933, 6.60685, -25.29752, 11.61642, -8.38547, 15.36643, -10.10951, 11.44717, -21.50494, 1.34514, -32.48055, -2.90655, -42.58972, -6.9663, -40.78946, 0.40208, -31.93014, 7.8207, -11.36023, 12.98795, -25.25798, -0.1087, -16.79996, -6.80309, -16.53184, -7.66788, 0.19221, -4.05538, 0.19221, -4.05538, -15.70818, -7.42488, -15.54207, -7.08609, -15.57669, -6.67772, -15.24919, -6.45513 ]
						}
					]
				},
				"mushroom": {
					"mushroom": [
						{ "time": 0, "curve": "stepped" },
						{ "time": 2.8666 }
					]
				}
			}
		}
	},
	"16": {
		"slots": {
			"Mushroom2": {
				"attachment": [
					{ "time": 0, "name": null },
					{ "time": 3.6666, "name": null }
				]
			},
			"Mushroom3": {
				"attachment": [
					{ "time": 0, "name": null },
					{ "time": 3.6666, "name": null }
				],
				"color": [
					{ "time": 0, "color": "a1a1a1ff", "curve": "stepped" },
					{ "time": 3.6666, "color": "a1a1a1ff" }
				]
			},
			"Mushroom5": {
				"attachment": [
					{ "time": 0, "name": null }
				]
			},
			"mushroom": {
				"attachment": [
					{ "time": 0, "name": null },
					{ "time": 3.6666, "name": null }
				]
			}
		},
		"bones": {
			"bone": {
				"rotate": [
					{ "time": 0, "angle": -3.62, "curve": "stepped" },
					{ "time": 3.6666, "angle": -3.62 }
				],
				"translate": [
					{ "time": 0, "x": 0, "y": 0, "curve": "stepped" },
					{ "time": 3.6666, "x": 0, "y": 0 }
				]
			},
			"bone3": {
				"rotate": [
					{ "time": 0, "angle": -8.08, "curve": "stepped" },
					{ "time": 3.6666, "angle": -8.08 }
				],
				"translate": [
					{ "time": 0, "x": 0, "y": 0, "curve": "stepped" },
					{ "time": 3.6666, "x": 0, "y": 0 }
				],
				"scale": [
					{ "time": 0, "x": 1.378, "y": 1.378, "curve": "stepped" },
					{ "time": 3.6666, "x": 1.378, "y": 1.378 }
				]
			},
			"bone4": {
				"rotate": [
					{
						"time": 0,
						"angle": -3.65,
						"curve": [ 0.25, 0, 0.75, 1 ]
					},
					{
						"time": 1.7666,
						"angle": 10.73,
						"curve": [ 0.25, 0, 0.75, 1 ]
					},
					{ "time": 3.6666, "angle": -3.65 }
				],
				"scale": [
					{ "time": 0, "x": 0.714, "y": 0.714 }
				]
			}
		},
		"ffd": {
			"default": {
				"Mushroom3": {
					"Mushroom3": [
						{ "time": 0, "curve": "stepped" },
						{ "time": 3.6666 }
					]
				},
				"Mushroom4": {
					"Mushroom4": [
						{
							"time": 0,
							"vertices": [ -61.28335, -18.63405, 0.19221, -4.05538, 0.19221, -4.05538, -22.02133, -12.07498, -23.45914, -24.58011, -45.19401, -22.08104, -61.46458, -20.21025, -58.71383, -17.24031, -51.6467, -14.11393, -40.52605, -13.70343, -24.00395, -10.81477, -27.88777, -16.84333, -38.09512, -20.73718, -58.07196, -19.00329, -47.84409, -13.97357, -39.82709, -6.22404, -39.82709, -6.22404, 0.19221, -4.05538, 0.19221, -4.05538, -39.82709, -6.22404, -39.82709, -6.22404, -39.82709, -6.22404, -39.82709, -6.22404 ],
							"curve": [ 0.25, 0, 0.75, 1 ]
						},
						{
							"time": 2.0333,
							"vertices": [ -44.39215, -8.03662, 0.19221, -4.05538, 0.19221, -4.05538, -44.39215, -8.03662, -44.39215, -8.03662, -44.39215, -8.03662, -44.39215, -8.03662, -44.39215, -8.03662, -49.54963, -12.27487, -49.54963, -12.27487, -44.39215, -8.03662, -44.39215, -8.03662, -44.39215, -8.03662, -44.39215, -8.03662, -49.54963, -12.27487, -39.82709, -6.22404, -39.82709, -6.22404, 0.19221, -4.05538, 0.19221, -4.05538, -39.82709, -6.22404, -39.82709, -6.22404, -39.82709, -6.22404, -39.82709, -6.22404 ],
							"curve": [ 0.25, 0, 0.75, 1 ]
						},
						{
							"time": 3.6666,
							"vertices": [ -61.28335, -18.63405, 0.19221, -4.05538, 0.19221, -4.05538, -22.02133, -12.07498, -23.45914, -24.58011, -45.19401, -22.08104, -61.46458, -20.21025, -58.71383, -17.24031, -51.6467, -14.11393, -40.52605, -13.70343, -24.00395, -10.81477, -27.88777, -16.84333, -38.09512, -20.73718, -58.07196, -19.00329, -47.84409, -13.97357, -39.82709, -6.22404, -39.82709, -6.22404, 0.19221, -4.05538, 0.19221, -4.05538, -39.82709, -6.22404, -39.82709, -6.22404, -39.82709, -6.22404, -39.82709, -6.22404 ]
						}
					]
				},
				"mushroom": {
					"mushroom": [
						{ "time": 0, "curve": "stepped" },
						{ "time": 3.6666 }
					]
				}
			}
		}
	},
	"17": {
		"slots": {
			"Mushroom2": {
				"attachment": [
					{ "time": 0, "name": null }
				]
			},
			"Mushroom3": {
				"attachment": [
					{ "time": 0, "name": null }
				],
				"color": [
					{ "time": 0, "color": "a1a1a1ff" }
				]
			},
			"Mushroom4": {
				"attachment": [
					{ "time": 0, "name": null }
				]
			},
			"mushroom": {
				"attachment": [
					{ "time": 0, "name": null }
				]
			}
		},
		"bones": {
			"bone": {
				"rotate": [
					{ "time": 0, "angle": -3.62 }
				],
				"translate": [
					{ "time": 0, "x": 0, "y": 0 }
				]
			},
			"bone3": {
				"rotate": [
					{ "time": 0, "angle": -8.08 }
				],
				"translate": [
					{ "time": 0, "x": 0, "y": 0 }
				],
				"scale": [
					{ "time": 0, "x": 1.378, "y": 1.378 }
				]
			},
			"bone4": {
				"rotate": [
					{ "time": 0, "angle": -3.65 }
				],
				"scale": [
					{ "time": 0, "x": 0.714, "y": 0.714 }
				]
			},
			"bone5": {
				"rotate": [
					{
						"time": 0,
						"angle": 0,
						"curve": [ 0.25, 0, 0.75, 1 ]
					},
					{
						"time": 1.6666,
						"angle": -4.91,
						"curve": [ 0.25, 0, 0.75, 1 ]
					},
					{ "time": 3.6, "angle": 0 }
				],
				"translate": [
					{ "time": 0, "x": 0, "y": 0, "curve": "stepped" },
					{ "time": 3.6, "x": 0, "y": 0 }
				]
			}
		},
		"ffd": {
			"default": {
				"Mushroom3": {
					"Mushroom3": [
						{ "time": 0 }
					]
				},
				"Mushroom4": {
					"Mushroom4": [
						{
							"time": 0,
							"vertices": [ -61.28335, -18.63405, 0.19221, -4.05538, 0.19221, -4.05538, -22.02133, -12.07498, -23.45914, -24.58011, -45.19401, -22.08104, -61.46458, -20.21025, -58.71383, -17.24031, -51.6467, -14.11393, -40.52605, -13.70343, -24.00395, -10.81477, -27.88777, -16.84333, -38.09512, -20.73718, -58.07196, -19.00329, -47.84409, -13.97357, -39.82709, -6.22404, -39.82709, -6.22404, 0.19221, -4.05538, 0.19221, -4.05538, -39.82709, -6.22404, -39.82709, -6.22404, -39.82709, -6.22404, -39.82709, -6.22404 ]
						}
					]
				},
				"Mushroom5": {
					"Mushroom5": [
						{
							"time": 0,
							"curve": [ 0.25, 0, 0.75, 1 ]
						},
						{
							"time": 2.1666,
							"offset": 4,
							"vertices": [ 27.16559, -34.40162, -40.81601, -23.12066, -37.74253, -19.13331, -12.07292, -10.23983, 14.72237, -7.86976, 28.97172, -11.09842, 15.10586, -21.75848, -5.28784, -27.20704, -26.31045, -23.71849, -4.58203, -9.57721 ],
							"curve": [ 0.25, 0, 0.75, 1 ]
						},
						{ "time": 3.6 }
					]
				},
				"mushroom": {
					"mushroom": [
						{ "time": 0 }
					]
				}
			}
		}
	}
}
}