
skeleton.png
size: 1024,1024
format: RGBA8888
filter: Linear,Linear
repeat: none
Flame/dag_0000_Layer-18
  rotate: false
  xy: 2, 532
  size: 688, 480
  orig: 688, 480
  offset: 0, 0
  index: -1
Flame/dag_0003_Layer-15
  rotate: false
  xy: 2, 50
  size: 688, 480
  orig: 688, 480
  offset: 0, 0
  index: -1
b
  rotate: false
  xy: 692, 125
  size: 270, 431
  orig: 270, 431
  offset: 0, 0
  index: -1
b2
  rotate: false
  xy: 692, 558
  size: 320, 454
  orig: 320, 454
  offset: 0, 0
  index: -1
h1
  rotate: false
  xy: 692, 42
  size: 127, 81
  orig: 127, 81
  offset: 0, 0
  index: -1
h2
  rotate: true
  xy: 915, 30
  size: 93, 71
  orig: 93, 71
  offset: 0, 0
  index: -1
m2
  rotate: false
  xy: 2, 2
  size: 59, 46
  orig: 59, 46
  offset: 0, 0
  index: -1
m3
  rotate: true
  xy: 821, 49
  size: 74, 92
  orig: 74, 92
  offset: 0, 0
  index: -1

skeleton2.png
size: 1024,1024
format: RGBA8888
filter: Linear,Linear
repeat: none
Flame/dag_0004_Layer-14
  rotate: false
  xy: 2, 484
  size: 688, 480
  orig: 688, 480
  offset: 0, 0
  index: -1
Flame/dag_0005_Layer-13
  rotate: false
  xy: 2, 2
  size: 688, 480
  orig: 688, 480
  offset: 0, 0
  index: -1

skeleton3.png
size: 1024,1024
format: RGBA8888
filter: Linear,Linear
repeat: none
Flame/dag_0006_Layer-12
  rotate: false
  xy: 2, 484
  size: 688, 480
  orig: 688, 480
  offset: 0, 0
  index: -1
Flame/dag_0007_Layer-11
  rotate: false
  xy: 2, 2
  size: 688, 480
  orig: 688, 480
  offset: 0, 0
  index: -1

skeleton4.png
size: 1024,1024
format: RGBA8888
filter: Linear,Linear
repeat: none
Flame/dag_0008_Layer-10
  rotate: false
  xy: 2, 484
  size: 688, 480
  orig: 688, 480
  offset: 0, 0
  index: -1
Flame/dag_0009_Layer-9
  rotate: false
  xy: 2, 2
  size: 688, 480
  orig: 688, 480
  offset: 0, 0
  index: -1

skeleton5.png
size: 1024,1024
format: RGBA8888
filter: Linear,Linear
repeat: none
Flame/dag_0010_Layer-8
  rotate: false
  xy: 2, 484
  size: 688, 480
  orig: 688, 480
  offset: 0, 0
  index: -1
Flame/dag_0011_Layer-7
  rotate: false
  xy: 2, 2
  size: 688, 480
  orig: 688, 480
  offset: 0, 0
  index: -1

skeleton6.png
size: 1024,1024
format: RGBA8888
filter: Linear,Linear
repeat: none
Flame/dag_0012_Layer-6
  rotate: false
  xy: 2, 484
  size: 688, 480
  orig: 688, 480
  offset: 0, 0
  index: -1
Flame/dag_0013_Layer-5
  rotate: false
  xy: 2, 2
  size: 688, 480
  orig: 688, 480
  offset: 0, 0
  index: -1

skeleton7.png
size: 1024,1024
format: RGBA8888
filter: Linear,Linear
repeat: none
Flame/dag_0014_Layer-4
  rotate: false
  xy: 2, 484
  size: 688, 480
  orig: 688, 480
  offset: 0, 0
  index: -1
Flame/dag_0015_Layer-3
  rotate: false
  xy: 2, 2
  size: 688, 480
  orig: 688, 480
  offset: 0, 0
  index: -1

skeleton8.png
size: 1024,1024
format: RGBA8888
filter: Linear,Linear
repeat: none
Flame/dag_0016_Layer-2
  rotate: false
  xy: 2, 484
  size: 688, 480
  orig: 688, 480
  offset: 0, 0
  index: -1
Flame/dag_0017_Layer-1
  rotate: false
  xy: 2, 2
  size: 688, 480
  orig: 688, 480
  offset: 0, 0
  index: -1

skeleton9.png
size: 1024,1024
format: RGBA8888
filter: Linear,Linear
repeat: none
Flame/dag_0018_Layer-24
  rotate: false
  xy: 2, 484
  size: 688, 480
  orig: 688, 480
  offset: 0, 0
  index: -1
Flame/dag_0019_Layer-23
  rotate: false
  xy: 2, 2
  size: 688, 480
  orig: 688, 480
  offset: 0, 0
  index: -1

skeleton10.png
size: 1024,1024
format: RGBA8888
filter: Linear,Linear
repeat: none
Flame/dag_0020_Layer-22
  rotate: false
  xy: 2, 484
  size: 688, 480
  orig: 688, 480
  offset: 0, 0
  index: -1
Flame/dag_0021_Layer-21
  rotate: false
  xy: 2, 2
  size: 688, 480
  orig: 688, 480
  offset: 0, 0
  index: -1

skeleton11.png
size: 1024,1024
format: RGBA8888
filter: Linear,Linear
repeat: none
Flame/dag_0022_Layer-32
  rotate: false
  xy: 2, 484
  size: 688, 480
  orig: 688, 480
  offset: 0, 0
  index: -1
Flame/dag_0023_Layer-31
  rotate: false
  xy: 2, 2
  size: 688, 480
  orig: 688, 480
  offset: 0, 0
  index: -1

skeleton12.png
size: 1024,1024
format: RGBA8888
filter: Linear,Linear
repeat: none
Flame/dag_0024_Layer-30
  rotate: false
  xy: 2, 484
  size: 688, 480
  orig: 688, 480
  offset: 0, 0
  index: -1
Flame/dag_0025_Layer-29
  rotate: false
  xy: 2, 2
  size: 688, 480
  orig: 688, 480
  offset: 0, 0
  index: -1

skeleton13.png
size: 1024,1024
format: RGBA8888
filter: Linear,Linear
repeat: none
Flame/dag_0026_Layer-28
  rotate: false
  xy: 2, 484
  size: 688, 480
  orig: 688, 480
  offset: 0, 0
  index: -1
Flame/dag_0027_Layer-27
  rotate: false
  xy: 2, 2
  size: 688, 480
  orig: 688, 480
  offset: 0, 0
  index: -1

skeleton14.png
size: 1024,512
format: RGBA8888
filter: Linear,Linear
repeat: none
Flame/dag_0028_Layer-26
  rotate: false
  xy: 2, 2
  size: 688, 480
  orig: 688, 480
  offset: 0, 0
  index: -1
