%YAML 1.1
%TAG !u! tag:unity3d.com,2011:
--- !u!21 &2100000
Material:
  serializedVersion: 6
  m_ObjectHideFlags: 0
  m_PrefabParentObject: {fileID: 0}
  m_PrefabInternal: {fileID: 0}
  m_Name: Example-Mask-Border
  m_Shader: {fileID: 4800000, guid: 094f997d54a7b384ea242557baff439d, type: 3}
  m_ShaderKeywords: 
  m_LightmapFlags: 5
  m_CustomRenderQueue: -1
  stringTagMap: {}
  m_SavedProperties:
    serializedVersion: 2
    m_TexEnvs:
    - first:
        name: _MainTex
      second:
        m_Texture: {fileID: 2800000, guid: fd1abb8787710a847beac9d445d008bd, type: 3}
        m_Scale: {x: 1, y: 0.5}
        m_Offset: {x: 0, y: 0}
    m_Floats:
    - first:
        name: _CullMode
      second: 2
    - first:
        name: _DEBUGDISTANCEFADE
      second: 0
    - first:
        name: _DEBUGUV
      second: 0
    - first:
        name: _InvFade
      second: 1
    - first:
        name: _MASK
      second: 0
    - first:
        name: _MIRROR_EDGE
      second: 0
    m_Colors:
    - first:
        name: _DistanceFade
      second: {r: 10, g: 50, b: 0, a: 0}
    - first:
        name: _Intensity
      second: {r: 0.1, g: 0.1, b: 0.1, a: 0.5}
    - first:
        name: _IntensityAndScrolling
      second: {r: 0.4, g: 0, b: 0, a: 0}
    - first:
        name: _NearFarParams
      second: {r: 0, g: 50, b: 0, a: 0}
    - first:
        name: _PivotAndAngle
      second: {r: 0.5, g: 0.5, b: 0, a: 0}
