%YAML 1.1
%TAG !u! tag:unity3d.com,2011:
--- !u!114 &11400000
MonoBehaviour:
  m_ObjectHideFlags: 0
  m_PrefabParentObject: {fileID: 0}
  m_PrefabInternal: {fileID: 0}
  m_GameObject: {fileID: 0}
  m_Enabled: 1
  m_EditorHideFlags: 0
  m_Script: {fileID: 11500000, guid: a6b194f808b1af6499c93410e504af42, type: 3}
  m_Name: skeleton_Atlas
  m_EditorClassIdentifier: 
  atlasFile: {fileID: 4900000, guid: 520cceb13cdf8f14c9af64012628e6f7, type: 3}
  materials:
  - {fileID: 2100000, guid: 1bdb2fd582c824b4d8122a9d7ef6366a, type: 2}
  - {fileID: 2100000, guid: 1477747523092c9408599bfb5ce7e23f, type: 2}
  - {fileID: 2100000, guid: 2e328d834769f424186b2778e677f687, type: 2}
  - {fileID: 2100000, guid: 4acd3de13e29c3f42923676e0977a6ad, type: 2}
  - {fileID: 2100000, guid: 43ee1acec16b1b34ba1a24b34e02c67e, type: 2}
  - {fileID: 2100000, guid: af50525be856c6f489d428bf8dc33e23, type: 2}
  - {fileID: 2100000, guid: 7ad2eca1c620b0c498f9a5cc5fc962e6, type: 2}
  - {fileID: 2100000, guid: 209d2810446da234581b74f5bd70d22f, type: 2}
  - {fileID: 2100000, guid: b508105ed0dd3c94a8ef8dbc4cb0ae99, type: 2}
  - {fileID: 2100000, guid: 0d0831b9f6fcead4d8d2a6828be8a237, type: 2}
  - {fileID: 2100000, guid: f05d00d39bd22db4d82df5bcc1a68124, type: 2}
  - {fileID: 2100000, guid: 3684d7e1c800ff047a1a4d20b716ffc9, type: 2}
  - {fileID: 2100000, guid: a20b4735d2c3d3642bda6555a2ea0d45, type: 2}
  - {fileID: 2100000, guid: 458b39ccb1d002f4e832e235a61e7c6a, type: 2}
  - {fileID: 2100000, guid: 1e3a6c0f85617bc48887c1de8939fc0e, type: 2}
  - {fileID: 2100000, guid: a35674e3597dea14794c97c10bf1dc41, type: 2}
  - {fileID: 2100000, guid: b24b7cd3541f40546988c29f1e89ae26, type: 2}
  - {fileID: 2100000, guid: 92baf43d71a3974458df433b94a94b7b, type: 2}
  - {fileID: 2100000, guid: f10775dcffa4f5d4c88c9c9a747f61f3, type: 2}
  - {fileID: 2100000, guid: e1888ad88210f57489b70aa37311dac3, type: 2}
  - {fileID: 2100000, guid: 4c6bfda9517b3a84597323e22c94d279, type: 2}
  - {fileID: 2100000, guid: bfe2aa58f98adbc4888de9442b63722f, type: 2}
  - {fileID: 2100000, guid: 6b271815af2089b4383f89b1431ddbbd, type: 2}
