
skeleton.png
size: 1024,1024
format: RGBA8888
filter: Linear,Linear
repeat: none
Axe
  rotate: true
  xy: 886, 735
  size: 266, 133
  orig: 266, 133
  offset: 0, 0
  index: -1
b
  rotate: false
  xy: 2, 570
  size: 270, 431
  orig: 270, 431
  offset: 0, 0
  index: -1
fire/dag_0000_Layer-14
  rotate: false
  xy: 2, 286
  size: 202, 282
  orig: 202, 282
  offset: 0, 0
  index: -1
fire/dag_0001_Layer-13
  rotate: false
  xy: 274, 719
  size: 202, 282
  orig: 202, 282
  offset: 0, 0
  index: -1
fire/dag_0002_Layer-12
  rotate: false
  xy: 2, 2
  size: 202, 282
  orig: 202, 282
  offset: 0, 0
  index: -1
fire/dag_0003_Layer-11
  rotate: false
  xy: 478, 719
  size: 202, 282
  orig: 202, 282
  offset: 0, 0
  index: -1
fire/dag_0004_Layer-10
  rotate: false
  xy: 682, 719
  size: 202, 282
  orig: 202, 282
  offset: 0, 0
  index: -1
fire/dag_0005_Layer-9
  rotate: true
  xy: 274, 515
  size: 202, 282
  orig: 202, 282
  offset: 0, 0
  index: -1
fire/dag_0006_Layer-8
  rotate: true
  xy: 558, 515
  size: 202, 282
  orig: 202, 282
  offset: 0, 0
  index: -1
h1
  rotate: true
  xy: 842, 590
  size: 127, 81
  orig: 127, 81
  offset: 0, 0
  index: -1
h2
  rotate: false
  xy: 842, 517
  size: 93, 71
  orig: 93, 71
  offset: 0, 0
  index: -1
