%YAML 1.1
%TAG !u! tag:unity3d.com,2011:
--- !u!114 &11400000
MonoBehaviour:
  m_ObjectHideFlags: 0
  m_PrefabParentObject: {fileID: 0}
  m_PrefabInternal: {fileID: 0}
  m_GameObject: {fileID: 0}
  m_Enabled: 1
  m_EditorHideFlags: 0
  m_Script: {fileID: 11500000, guid: a6b194f808b1af6499c93410e504af42, type: 3}
  m_Name: skeleton_Atlas
  m_EditorClassIdentifier: 
  atlasFile: {fileID: 4900000, guid: 0b2ee48fdaecac845823fec117cfa4f8, type: 3}
  materials:
  - {fileID: 2100000, guid: 5566af6dc572b7c45b2cc0f3eebc6447, type: 2}
  - {fileID: 2100000, guid: 30be557b84111264db052d64826ce150, type: 2}
  - {fileID: 2100000, guid: bbef414ae15919b428b84b1bc6280872, type: 2}
