
skeleton.png
size: 2165,252
format: RGBA8888
filter: Linear,Linear
repeat: none
Grass2
  rotate: false
  xy: 2, 2
  size: 1539, 248
  orig: 1539, 248
  offset: 0, 0
  index: -1
Grass5
  rotate: false
  xy: 1543, 22
  size: 620, 228
  orig: 620, 228
  offset: 0, 0
  index: -1
