%YAML 1.1
%TAG !u! tag:unity3d.com,2011:
--- !u!310 &1
UnityConnectSettings:
  m_ObjectHideFlags: 0
  m_Enabled: 0
  m_TestMode: 0
  m_TestEventUrl: 
  m_TestConfigUrl: 
  CrashReportingSettings:
    m_EventUrl: https://perf-events.cloud.unity3d.com/api/events/crashes
    m_Enabled: 0
    m_CaptureEditorExceptions: 1
  UnityPurchasingSettings:
    m_Enabled: 0
    m_TestMode: 0
  UnityAnalyticsSettings:
    m_Enabled: 0
    m_InitializeOnStartup: 1
    m_TestMode: 1
    m_TestEventUrl: 
    m_TestConfigUrl: 
  UnityAdsSettings:
    m_Enabled: 0
    m_InitializeOnStartup: 0
    m_TestMode: 0
    m_EnabledPlatforms: 4294964991
    m_IosGameId: 
    m_AndroidGameId: 
