
skeleton.png
size: 936,189
format: RGBA8888
filter: Linear,Linear
repeat: none
1
  rotate: true
  xy: 2, 2
  size: 185, 292
  orig: 185, 292
  offset: 0, 0
  index: -1
2
  rotate: true
  xy: 296, 6
  size: 60, 292
  orig: 60, 292
  offset: 0, 0
  index: -1
3
  rotate: true
  xy: 296, 68
  size: 119, 244
  orig: 119, 244
  offset: 0, 0
  index: -1
4
  rotate: true
  xy: 542, 75
  size: 112, 244
  orig: 112, 244
  offset: 0, 0
  index: -1
5
  rotate: false
  xy: 788, 27
  size: 146, 160
  orig: 146, 160
  offset: 0, 0
  index: -1
