
skeleton.png
size: 300,154
format: RGBA8888
filter: Linear,Linear
repeat: none
Brick
  rotate: true
  xy: 2, 5
  size: 147, 170
  orig: 147, 170
  offset: 0, 0
  index: -1
Brick2
  rotate: false
  xy: 174, 2
  size: 124, 150
  orig: 124, 150
  offset: 0, 0
  index: -1
