%YAML 1.1
%TAG !u! tag:unity3d.com,2011:
--- !u!114 &11400000
MonoBehaviour:
  m_ObjectHideFlags: 0
  m_PrefabParentObject: {fileID: 0}
  m_PrefabInternal: {fileID: 0}
  m_GameObject: {fileID: 0}
  m_Enabled: 1
  m_EditorHideFlags: 0
  m_Script: {fileID: 11500000, guid: a6b194f808b1af6499c93410e504af42, type: 3}
  m_Name: skeleton_Atlas
  m_EditorClassIdentifier: 
  atlasFile: {fileID: 4900000, guid: 6f02423aa505c6945b7b459b91057376, type: 3}
  materials:
  - {fileID: 2100000, guid: 6e598646df0f7304b90d894fa4b5ad46, type: 2}
